Regression for Linguists - 6 Logistic regression
…
Let’s plot out our dependent variable of interest: regression in.

# make grammaticality a factor
df_tense |> 
  mutate(gramm = as_factor(gramm)) 

# A tibble: 3,840 × 13
   sj     item adv_type adv_t  verb_t gramm    roi label    fp    gp    tt    ri
   <chr> <dbl> <chr>    <chr>  <chr>  <fct>  <dbl> <chr> <dbl> <dbl> <dbl> <dbl>
 1 1        54 Deic     Past   Past   gramm      4 enca…  1027  1027  1027     0
 2 1         4 Deic     Future Future gramm      4 cole…   562   562  1337     1
 3 1        62 Deic     Past   Past   gramm      4 esqu…   293  1664  1141     0
 4 1        96 Deic     Future Past   ungra…     4 cons…   713  1963  1868     0
 5 1        52 Deic     Past   Past   gramm      4 desa…   890   890  1707     1
 6 1        90 Deic     Future Past   ungra…     4 dece…   962   962   962     0
 7 1         8 Deic     Future Future gramm      4 evid…   718   718   718     0
 8 1         9 Deic     Future Future gramm      4 excu…  1453  1453  1453     0
 9 1        56 Deic     Past   Past   gramm      4 equi…   769   769   769     0
10 1        11 Deic     Future Future gramm      4 cena…   778   778   778     0
# ℹ 3,830 more rows
# ℹ 1 more variable: ro <dbl>
…
