Regression for Linguists - 11 Shrinkage and Partial Pooling
…
center <- fixef(m)
levels <- c(.1, .3, .5, .7, .9)

# Create an ellipse dataframe for each of the levels defined 
# above and combine them
df_ellipse <- levels %>%
  lapply(
    function(x) make_ellipse(cov_mat, center, level = x)
  ) %>% 
  bind_rows() %>% 
  rename(intercept = `(Intercept)`)

df_ellipse
#> # A tibble: 500 × 3
#>    Intercept Slope_Days level
#>        <dbl>      <dbl> <dbl>
#>  1      261.       12.4   0.1
#>  2      260.       12.6   0.1
#>  3      260.       12.7   0.1
#>  4      259.       12.8   0.1
#>  5      258.       12.8   0.1
#>  6      258.       12.9   0.1
#>  7      257.       13.0   0.1
#>  8      257.       13.0   0.1
#>  9      256.       13.1   0.1
#> 10      255.       13.1   0.1
#> # … with 490 more rows
```
…
